{"response":
    {"status":"ok",
        "userTier":"developer",
        "total":2068862,
        "startIndex":1,
        "pageSize":10,
        "currentPage":1,
        "pages":206887,
        "orderBy":"newest",
        "results":
        [{"id":"australia-news/2018/oct/21/phelps-backs-getting-children-off-nauru-as-wentworth-vote-narrows",
            "type":"article",
            "sectionId":"australia-news",
            "sectionName":"Australia news",
            "webPublicationDate":"2018-10-21T08:34:47Z",
            "webTitle":"Kerryn Phelps pulls further into lead in Wentworth after rollercoaster ride in count",
            "webUrl":"https://www.theguardian.com/australia-news/2018/oct/21/phelps-backs-getting-children-off-nauru-as-wentworth-vote-narrows",
            "apiUrl":"https://content.guardianapis.com/australia-news/2018/oct/21/phelps-backs-getting-children-off-nauru-as-wentworth-vote-narrows",
            "isHosted":false,
            "pillarId":"pillar/news",
            "pillarName":"News"}]}}